{
    "cordova-plugin-whitelist": {
        "source": {
            "type": "registry",
            "id": "cordova-plugin-whitelist@1"
        },
        "is_top_level": true,
        "variables": {}
    },
    "cordova-plugin-console": {
        "source": {
            "type": "registry",
            "id": "cordova-plugin-console"
        },
        "is_top_level": true,
        "variables": {}
    },
    "com.shazron.cordova.plugin.keychainutil": {
        "source": {
            "type": "registry",
            "id": "com.shazron.cordova.plugin.keychainutil"
        },
        "is_top_level": true,
        "variables": {}
    },
    "com-badrit-macaddress": {
        "source": {
            "type": "git",
            "url": "https://github.com/mohamed-salah/MacAddress.git",
            "subdir": "."
        },
        "is_top_level": true,
        "variables": {}
    },
    "com.phonegap.plugins.PushPlugin": {
        "source": {
            "type": "registry",
            "id": "com.phonegap.plugins.pushplugin"
        },
        "is_top_level": true,
        "variables": {}
    },
    "cordova-plugin-file": {
        "source": {
            "type": "registry",
            "id": "cordova-plugin-file"
        },
        "is_top_level": true,
        "variables": {}
    },
    "cordova-plugin-file-transfer": {
        "source": {
            "type": "registry",
            "id": "cordova-plugin-file-transfer"
        },
        "is_top_level": true,
        "variables": {}
    },
    "hu.dpal.phonegap.plugins.SpinnerDialog": {
        "source": {
            "type": "git",
            "url": "https://github.com/Paldom/SpinnerDialog.git",
            "subdir": "."
        },
        "is_top_level": true,
        "variables": {}
    },
    "cordova-plugin-network-information": {
        "source": {
            "type": "registry",
            "id": "cordova-plugin-network-information"
        },
        "is_top_level": true,
        "variables": {}
    },
    "cordova-plugin-x-toast": {
        "source": {
            "type": "registry",
            "id": "cordova-plugin-x-toast"
        },
        "is_top_level": true,
        "variables": {}
    },
    "cordova-plugin-splashscreen": {
        "source": {
            "type": "registry",
            "id": "cordova-plugin-splashscreen"
        },
        "is_top_level": true,
        "variables": {}
    },
    "cordova-plugin-inappbrowser": {
        "source": {
            "type": "registry",
            "id": "cordova-plugin-inappbrowser@1.7.1"
        },
        "is_top_level": true,
        "variables": {}
    },
    "cordova-plugin-x-socialsharing": {
        "source": {
            "type": "git",
            "url": "https://github.com/EddyVerbruggen/SocialSharing-PhoneGap-Plugin.git",
            "subdir": "."
        },
        "is_top_level": true,
        "variables": {}
    },
    "cordova-plugin-vibration": {
        "source": {
            "type": "git",
            "url": "https://git-wip-us.apache.org/repos/asf/cordova-plugin-vibration.git",
            "subdir": "."
        },
        "is_top_level": true,
        "variables": {}
    },
    "cordova-plugin-dialogs": {
        "source": {
            "type": "git",
            "url": "https://git-wip-us.apache.org/repos/asf/cordova-plugin-dialogs.git",
            "subdir": "."
        },
        "is_top_level": true,
        "variables": {}
    },
    "com.jkhax0r.bluetoothle": {
        "source": {
            "type": "git",
            "url": "https://github.com/jkhax0r/BluetoothLE.git",
            "subdir": "."
        },
        "is_top_level": true,
        "variables": {}
    },
    "cordova-plugin-ble-central": {
        "source": {
            "type": "registry",
            "id": "cordova-plugin-ble-central"
        },
        "is_top_level": true,
        "variables": {}
    },
    "cordova-plugin-device": {
        "source": {
            "type": "registry",
            "id": "cordova-plugin-device"
        },
        "is_top_level": true,
        "variables": {}
    },
    "cordova-plugin-camera": {
        "source": {
            "type": "registry",
            "id": "cordova-plugin-camera"
        },
        "is_top_level": true,
        "variables": {}
    },
    "cordova-plugin-compat": {
        "source": {
            "type": "registry",
            "id": "cordova-plugin-compat"
        },
        "is_top_level": false,
        "variables": {}
    },
    "cordova-plugin-firebase": {
        "source": {
            "type": "registry",
            "id": "cordova-plugin-firebase@0.1.21"
        },
        "is_top_level": true,
        "variables": {}
    }
}